{
    "connectionString": "mongodb://downloadsport:ror_DownloadsPortal2020@207.244.109.166:27017/downloadsdb",
    "defaultConnectionString": "mongodb://127.0.0.1:27017/downloadsdb",
    "secret": "Christ-IN-ME-THEOPEOFALL-GLORY"
}
